^C:\USERS\USER\DOCUMENTS\VISUAL STUDIO 2013\PROJECTS\CRYPTOPP1\CRYPTOPP1\DEBUG\CLIENT.OBJ|C:\USERS\USER\DOCUMENTS\VISUAL STUDIO 2013\PROJECTS\CRYPTOPP1\CRYPTOPP1\DEBUG\CRYPTODEVICE.OBJ|C:\USERS\USER\DOCUMENTS\VISUAL STUDIO 2013\PROJECTS\CRYPTOPP1\CRYPTOPP1\DEBUG\SOURCE.OBJ
C:\USERS\USER\DOCUMENTS\VISUAL STUDIO 2013\PROJECTS\CRYPTOPP1\DEBUG\CRYPTOPP1.ILK
C:\USERS\USER\DOCUMENTS\VISUAL STUDIO 2013\PROJECTS\CRYPTOPP1\DEBUG\CRYPTOPP1.EXE
C:\USERS\USER\DOCUMENTS\VISUAL STUDIO 2013\PROJECTS\CRYPTOPP1\DEBUG\CRYPTOPP1.PDB
